<?xml version="1.0" encoding="UTF-8" standalone="no"?>
<!-- Created with Inkscape (http://www.inkscape.org/) -->

<svg
   xmlns:dc="http://purl.org/dc/elements/1.1/"
   xmlns:cc="http://creativecommons.org/ns#"
   xmlns:rdf="http://www.w3.org/1999/02/22-rdf-syntax-ns#"
   xmlns:svg="http://www.w3.org/2000/svg"
   xmlns="http://www.w3.org/2000/svg"
   xmlns:sodipodi="http://sodipodi.sourceforge.net/DTD/sodipodi-0.dtd"
   xmlns:inkscape="http://www.inkscape.org/namespaces/inkscape"
   width="210mm"
   height="297mm"
   viewBox="0 0 210 297"
   version="1.1"
   id="svg4501"
   inkscape:version="0.91 r13725"
   sodipodi:docname="steps_all_in_one.svg">
  <defs
     id="defs4495">
    <clipPath
       clipPathUnits="userSpaceOnUse"
       id="clipPath4501">
      <path
         d="M 0,595.28 H 841.89 V 0 H 0 Z"
         id="path4499"
         inkscape:connector-curvature="0" />
    </clipPath>
    <clipPath
       clipPathUnits="userSpaceOnUse"
       id="clipPath4501-4">
      <path
         d="M 0,595.28 H 841.89 V 0 H 0 Z"
         id="path4499-7"
         inkscape:connector-curvature="0" />
    </clipPath>
    <clipPath
       clipPathUnits="userSpaceOnUse"
       id="clipPath4501-47">
      <path
         d="M 0,595.28 H 841.89 V 0 H 0 Z"
         id="path4499-0"
         inkscape:connector-curvature="0" />
    </clipPath>
    <clipPath
       clipPathUnits="userSpaceOnUse"
       id="clipPath4501-8">
      <path
         d="M 0,595.28 H 841.89 V 0 H 0 Z"
         id="path4499-8"
         inkscape:connector-curvature="0" />
    </clipPath>
  </defs>
  <sodipodi:namedview
     id="base"
     pagecolor="#ffffff"
     bordercolor="#666666"
     borderopacity="1.0"
     inkscape:pageopacity="0.0"
     inkscape:pageshadow="2"
     inkscape:zoom="0.93688821"
     inkscape:cx="367.80957"
     inkscape:cy="912.51779"
     inkscape:document-units="mm"
     inkscape:current-layer="layer1"
     showgrid="false"
     showguides="true"
     inkscape:guide-bbox="true"
     inkscape:window-width="1280"
     inkscape:window-height="751"
     inkscape:window-x="0"
     inkscape:window-y="1"
     inkscape:window-maximized="1">
    <sodipodi:guide
       position="54.42857,285.18304"
       orientation="0,1"
       id="guide4646"
       inkscape:locked="false" />
    <sodipodi:guide
       position="51.404761,307.29465"
       orientation="1,0"
       id="guide4648"
       inkscape:locked="false" />
    <sodipodi:guide
       position="103.44734,247.95602"
       orientation="1,0"
       id="guide4650"
       inkscape:locked="false" />
    <sodipodi:guide
       position="14.174107,235.29018"
       orientation="0,1"
       id="guide4652"
       inkscape:locked="false" />
    <sodipodi:guide
       position="70.681546,260.04763"
       orientation="0,1"
       id="guide4654"
       inkscape:locked="false" />
    <sodipodi:guide
       position="142.875,317.689"
       orientation="1,0"
       id="guide4656"
       inkscape:locked="false" />
    <sodipodi:guide
       position="184.81381,248.2585"
       orientation="1,0"
       id="guide4658"
       inkscape:locked="false" />
    <sodipodi:guide
       position="26.269345,265.90626"
       orientation="0,1"
       id="guide4660"
       inkscape:locked="false" />
    <sodipodi:guide
       position="22.76144,248.33411"
       orientation="1,0"
       id="guide4205" />
  </sodipodi:namedview>
  <metadata
     id="metadata4498">
    <rdf:RDF>
      <cc:Work
         rdf:about="">
        <dc:format>image/svg+xml</dc:format>
        <dc:type
           rdf:resource="http://purl.org/dc/dcmitype/StillImage" />
        <dc:title />
      </cc:Work>
    </rdf:RDF>
  </metadata>
  <g
     inkscape:label="Layer 1"
     inkscape:groupmode="layer"
     id="layer1">
    <g
       id="layer1-0"
       inkscape:label="Layer 1"
       transform="matrix(0.88161171,0,0,0.84498414,-0.14025571,10.970724)">
      <g
         id="g4493"
         inkscape:label="vektory"
         transform="matrix(0.35277777,0,0,-0.35277777,-30.556318,197.28112)">
        <g
           transform="translate(10.985409,22.728433)"
           id="g4495">
          <g
             transform="translate(222.79631,461.42036)"
             id="g4523">
            <path
               inkscape:connector-curvature="0"
               id="path4525"
               style="fill:#71af2e;fill-opacity:1;fill-rule:nonzero;stroke:none"
               d="m 0,0 c 0,-40.389 -32.311,-72.071 -73.314,-72.071 -41.832,0 -73.307,31.27 -73.307,73.101 0,39.763 32.307,71.242 73.101,71.242 C -32.311,72.272 0,40.593 0,0" />
          </g>
          <g
             transform="translate(149.48481,453.41396)"
             id="g4547">
            <path
               inkscape:connector-curvature="0"
               id="path4549"
               style="fill:#ffffff;fill-opacity:1;fill-rule:nonzero;stroke:none"
               d="m 0,0 c -9.851,0 -17.832,7.985 -17.832,17.834 0,9.849 7.981,17.834 17.832,17.834 9.851,0 17.834,-7.985 17.834,-17.834 C 17.834,7.985 9.851,0 0,0 m 0,48.799 c -17.101,0 -30.966,-13.863 -30.966,-30.965 0,-32.182 30.966,-50.42 30.966,-50.42 0,0 30.839,18.238 30.966,50.42 C 31.032,34.936 17.101,48.799 0,48.799" />
          </g>
        </g>
      </g>
    </g>
    <g
       id="layer1-6"
       inkscape:label="Layer 1"
       transform="matrix(0.88161171,0,0,0.84498414,79.175733,10.093589)">
      <g
         id="g4493-1"
         inkscape:label="vektory"
         transform="matrix(0.35277777,0,0,-0.35277777,-30.556318,197.28112)">
        <g
           transform="translate(10.985409,22.728433)"
           id="g4495-5">
          <g
             transform="translate(227.05737,458.47786)"
             id="g4519">
            <path
               inkscape:connector-curvature="0"
               id="path4521"
               style="fill:#71af2e;fill-opacity:1;fill-rule:nonzero;stroke:none"
               d="m 0,0 c 0,-40.389 -32.311,-72.071 -73.314,-72.071 -41.832,0 -73.307,31.27 -73.307,73.101 0,39.763 32.307,71.242 73.101,71.242 C -32.311,72.272 0,40.593 0,0" />
          </g>
          <g
             transform="translate(179.57787,472.35186)"
             id="g4543">
            <path
               inkscape:connector-curvature="0"
               id="path4545"
               style="fill:#ffffff;fill-opacity:1;fill-rule:nonzero;stroke:none"
               d="m 0,0 h -22.909 v 4.961 c 3.821,1.233 6.585,4.814 6.585,9.042 0,5.252 -4.257,9.509 -9.507,9.509 -5.25,0 -9.506,-4.257 -9.506,-9.509 0,-4.229 2.766,-7.811 6.587,-9.043 V 0 h -22.91 c -1.612,0 -2.92,-1.308 -2.92,-2.92 0,-1.613 1.308,-2.921 2.92,-2.921 h 22.91 v -12.338 l -16.61,-28.487 c -0.812,-1.393 -0.341,-3.182 1.052,-3.994 0.462,-0.27 0.969,-0.398 1.468,-0.398 1.005,0 1.984,0.519 2.526,1.451 l 14.485,24.84 14.482,-24.84 c 0.542,-0.932 1.521,-1.451 2.526,-1.451 0.499,0 1.005,0.128 1.467,0.398 1.394,0.812 1.865,2.6 1.053,3.994 l -16.608,28.487 V -5.841 H 0 c 1.611,0 2.919,1.308 2.919,2.921 C 2.919,-1.308 1.611,0 0,0" />
          </g>
        </g>
      </g>
    </g>
    <g
       id="layer1-7"
       inkscape:label="Layer 1"
       transform="matrix(0.88161171,0,0,0.84498414,161.56743,10.873423)">
      <g
         id="g4493-3"
         inkscape:label="vektory"
         transform="matrix(0.35277777,0,0,-0.35277777,-30.556318,197.28112)">
        <g
           transform="translate(10.985409,22.728433)"
           id="g4495-8">
          <g
             transform="translate(223.57196,462.26593)"
             id="g4515">
            <path
               inkscape:connector-curvature="0"
               id="path4517"
               style="fill:#71af2e;fill-opacity:1;fill-rule:nonzero;stroke:none"
               d="m 0,0 c 0,-40.389 -32.311,-72.071 -73.314,-72.071 -41.832,0 -73.307,31.27 -73.307,73.101 0,39.763 32.307,71.242 73.101,71.242 C -32.311,72.272 0,40.592 0,0" />
          </g>
          <g
             transform="translate(160.94796,452.73033)"
             id="g4527">
            <path
               inkscape:connector-curvature="0"
               id="path4529"
               style="fill:#ffffff;fill-opacity:1;fill-rule:evenodd;stroke:none"
               d="m 0,0 c 0,-5.008 -0.064,-9.702 0.016,-14.392 0.104,-6.12 -1.254,-5.041 5.428,-5.154 0.068,-0.001 0.134,0.003 0.199,10e-4 1.055,-0.032 1.577,0.426 1.575,1.534 C 7.202,-9.476 7.231,-0.94 7.147,7.594 7.142,8.088 6.282,8.974 5.805,8.984 4.596,9.01 3.304,8.833 2.181,8.389 0.221,7.613 -1.636,6.58 -3.536,5.65 -5.652,4.615 -6.023,3.156 -4.733,-0.244 -3.939,-2.338 -2.648,-0.309 -1.592,-0.407 -1.178,-0.446 -0.736,-0.199 0,0 m -15.381,-3.723 c 0.649,0.488 1.131,0.821 1.583,1.192 4.038,3.319 3.367,8.725 -1.368,10.9 -2.875,1.32 -5.88,1.242 -8.942,0.829 -4.833,-0.652 -4.979,-0.814 -4.486,-5.44 0.159,-1.492 0.66,-1.881 2.193,-1.485 1.825,0.471 3.746,0.652 5.635,0.743 0.536,0.025 1.494,-0.642 1.568,-1.103 0.103,-0.636 -0.256,-1.644 -0.765,-2.012 -0.758,-0.547 -1.826,-0.655 -2.749,-0.987 -0.598,-0.216 -1.638,-0.438 -1.678,-0.759 -0.214,-1.676 -0.351,-3.413 -0.094,-5.063 0.067,-0.428 1.638,-0.643 2.53,-0.917 0.631,-0.193 1.292,-0.292 1.924,-0.484 1.305,-0.398 2.265,-1.112 2.197,-2.653 -0.072,-1.623 -1.2,-2.425 -2.555,-2.574 -1.621,-0.175 -3.333,-0.171 -4.924,0.157 -3.739,0.769 -3.719,0.865 -4.281,-2.834 -0.051,-0.328 -0.221,-0.724 -0.099,-0.971 0.307,-0.622 0.649,-1.556 1.156,-1.69 1.904,-0.503 3.873,-0.979 5.828,-1.02 3.85,-0.081 7.557,0.596 10.307,3.681 3.526,3.953 2.371,8.999 -2.98,12.49 m 4.503,-26.475 c -10.594,0 -21.186,-0.002 -31.78,0.001 -3.015,10e-4 -3.225,0.2 -3.226,3.097 -0.003,15.096 -0.003,30.19 0,45.286 10e-4,2.863 0.183,3.055 3.031,3.056 21.452,0.005 42.902,0.005 64.353,0 2.842,-0.001 3.026,-0.196 3.027,-3.06 0.004,-15.096 0.004,-30.19 0,-45.286 -0.001,-2.842 -0.241,-3.091 -3.03,-3.092 -10.792,-0.005 -21.584,-0.002 -32.375,-0.002" />
          </g>
          <g
             transform="translate(150.18276,478.93003)"
             id="g4531">
            <path
               inkscape:connector-curvature="0"
               id="path4533"
               style="fill:#ffffff;fill-opacity:1;fill-rule:evenodd;stroke:none"
               d="m 0,0 c -10.727,0 -21.452,-0.002 -32.179,0.002 -2.772,0.002 -2.934,0.164 -2.94,2.907 -0.007,3.84 0.053,7.681 -0.024,11.52 -0.036,1.815 0.697,2.528 2.478,2.431 1.518,-0.084 3.046,-0.067 4.567,-0.003 1.204,0.051 1.522,-0.444 1.641,-1.618 0.19,-1.874 0.514,-3.778 1.115,-5.556 0.637,-1.886 2.243,-2.787 4.201,-3.217 6.253,-1.374 10.181,1.575 10.234,7.98 0.015,1.894 0.507,2.482 2.437,2.442 5.89,-0.123 11.785,-0.087 17.676,-0.016 1.531,0.019 2.122,-0.409 2.055,-2.014 -0.055,-1.297 0.088,-2.678 0.492,-3.906 1.242,-3.766 4.28,-5.327 8.726,-4.676 3.87,0.567 6.027,3.083 6.351,7.41 0.237,3.158 0.237,3.165 3.401,3.156 5.538,-0.016 5.055,0.533 5.062,-4.967 C 35.298,8.828 35.304,5.783 35.292,2.737 35.28,0.233 35.063,0.006 32.576,0.004 21.717,-0.004 10.858,0 0,0" />
          </g>
          <g
             transform="translate(165.84496,496.03593)"
             id="g4535">
            <path
               inkscape:connector-curvature="0"
               id="path4537"
               style="fill:#ffffff;fill-opacity:1;fill-rule:evenodd;stroke:none"
               d="M 0,0 C 0.002,1.055 -0.053,2.113 0.015,3.163 0.146,5.184 1.348,6.212 3.418,6.165 5.438,6.119 6.423,5.195 6.489,3.094 6.557,0.92 6.56,-1.258 6.485,-3.431 6.415,-5.501 5.417,-6.376 3.344,-6.385 1.176,-6.393 0.121,-5.463 0.008,-3.361 -0.052,-2.244 -0.002,-1.12 0,0" />
          </g>
          <g
             transform="translate(134.70186,495.78453)"
             id="g4539">
            <path
               inkscape:connector-curvature="0"
               id="path4541"
               style="fill:#ffffff;fill-opacity:1;fill-rule:evenodd;stroke:none"
               d="m 0,0 c 0,-0.987 0.032,-1.976 -0.006,-2.963 -0.086,-2.203 -1.056,-3.158 -3.161,-3.169 -2.144,-0.011 -3.134,0.89 -3.208,3.106 -0.069,2.105 -0.073,4.215 0.005,6.32 0.081,2.155 1.185,3.156 3.24,3.122 C -1.092,6.382 -0.087,5.354 -0.006,3.16 0.033,2.108 0,1.054 0,0" />
          </g>
        </g>
      </g>
    </g>
    <g
       id="layer1-9"
       inkscape:label="Layer 1"
       transform="matrix(0.88161171,0,0,0.84498414,45.242606,3.9616531)">
      <g
         id="g4493-7"
         inkscape:label="vektory"
         transform="matrix(0.35277777,0,0,-0.35277777,-30.556318,197.28112)">
        <g
           transform="translate(10.985409,22.728433)"
           id="g4495-6">
          <g
             transform="translate(101.5674,417.8232)"
             id="g4503">
            <path
               inkscape:connector-curvature="0"
               id="path4505"
               style="fill:#377343;fill-opacity:1;fill-rule:nonzero;stroke:none"
               d="M 0,0 C -0.513,0 -1.031,0.157 -1.477,0.484 -2.59,1.301 -2.831,2.865 -2.014,3.979 L 10.657,21.256 -2.014,38.533 c -0.817,1.113 -0.576,2.677 0.537,3.494 1.114,0.816 2.679,0.577 3.495,-0.537 L 15.773,22.734 c 0.645,-0.88 0.645,-2.077 0,-2.957 L 2.018,1.021 C 1.528,0.354 0.769,0 0,0" />
          </g>
          <g
             transform="translate(119.8726,417.8232)"
             id="g4507">
            <path
               inkscape:connector-curvature="0"
               id="path4509"
               style="fill:#377343;fill-opacity:1;fill-rule:nonzero;stroke:none"
               d="M 0,0 C -0.513,0 -1.031,0.157 -1.477,0.484 -2.59,1.301 -2.831,2.865 -2.014,3.979 L 10.658,21.256 -2.014,38.533 c -0.817,1.113 -0.576,2.677 0.537,3.494 1.114,0.816 2.679,0.577 3.495,-0.537 L 15.774,22.734 c 0.645,-0.88 0.645,-2.077 0,-2.957 L 2.018,1.021 C 1.528,0.354 0.769,0 0,0" />
          </g>
          <g
             transform="translate(138.1782,417.8232)"
             id="g4511">
            <path
               inkscape:connector-curvature="0"
               id="path4513"
               style="fill:#377343;fill-opacity:1;fill-rule:nonzero;stroke:none"
               d="M 0,0 C -0.513,0 -1.031,0.157 -1.477,0.484 -2.59,1.301 -2.831,2.865 -2.014,3.979 L 10.657,21.256 -2.014,38.533 c -0.817,1.113 -0.576,2.677 0.537,3.494 1.115,0.816 2.679,0.577 3.495,-0.537 L 15.773,22.734 c 0.645,-0.88 0.645,-2.077 0,-2.957 L 2.018,1.021 C 1.528,0.354 0.769,0 0,0" />
          </g>
        </g>
      </g>
    </g>
    <g
       id="layer1-9-5"
       inkscape:label="Layer 1"
       transform="matrix(0.88161171,0,0,0.84498414,127.22567,3.9616531)">
      <g
         id="g4493-7-6"
         inkscape:label="vektory"
         transform="matrix(0.35277777,0,0,-0.35277777,-30.556318,197.28112)">
        <g
           transform="translate(10.985409,22.728433)"
           id="g4495-6-0">
          <g
             transform="translate(101.5674,417.8232)"
             id="g4503-2">
            <path
               inkscape:connector-curvature="0"
               id="path4505-4"
               style="fill:#377343;fill-opacity:1;fill-rule:nonzero;stroke:none"
               d="M 0,0 C -0.513,0 -1.031,0.157 -1.477,0.484 -2.59,1.301 -2.831,2.865 -2.014,3.979 L 10.657,21.256 -2.014,38.533 c -0.817,1.113 -0.576,2.677 0.537,3.494 1.114,0.816 2.679,0.577 3.495,-0.537 L 15.773,22.734 c 0.645,-0.88 0.645,-2.077 0,-2.957 L 2.018,1.021 C 1.528,0.354 0.769,0 0,0" />
          </g>
          <g
             transform="translate(119.8726,417.8232)"
             id="g4507-9">
            <path
               inkscape:connector-curvature="0"
               id="path4509-0"
               style="fill:#377343;fill-opacity:1;fill-rule:nonzero;stroke:none"
               d="M 0,0 C -0.513,0 -1.031,0.157 -1.477,0.484 -2.59,1.301 -2.831,2.865 -2.014,3.979 L 10.658,21.256 -2.014,38.533 c -0.817,1.113 -0.576,2.677 0.537,3.494 1.114,0.816 2.679,0.577 3.495,-0.537 L 15.774,22.734 c 0.645,-0.88 0.645,-2.077 0,-2.957 L 2.018,1.021 C 1.528,0.354 0.769,0 0,0" />
          </g>
          <g
             transform="translate(138.1782,417.8232)"
             id="g4511-9">
            <path
               inkscape:connector-curvature="0"
               id="path4513-9"
               style="fill:#377343;fill-opacity:1;fill-rule:nonzero;stroke:none"
               d="M 0,0 C -0.513,0 -1.031,0.157 -1.477,0.484 -2.59,1.301 -2.831,2.865 -2.014,3.979 L 10.657,21.256 -2.014,38.533 c -0.817,1.113 -0.576,2.677 0.537,3.494 1.115,0.816 2.679,0.577 3.495,-0.537 L 15.773,22.734 c 0.645,-0.88 0.645,-2.077 0,-2.957 L 2.018,1.021 C 1.528,0.354 0.769,0 0,0" />
          </g>
        </g>
      </g>
    </g>
    <text
       xml:space="preserve"
       style="font-style:normal;font-variant:normal;font-weight:normal;font-stretch:normal;font-size:5.64444447px;line-height:100%;font-family:Arial;-inkscape-font-specification:'Arial, Normal';text-align:center;letter-spacing:0px;word-spacing:0px;writing-mode:lr-tb;text-anchor:middle;fill:#000000;fill-opacity:1;stroke:none;stroke-width:0.26458332"
       x="22.927149"
       y="61.764652"
       id="text4664"
       sodipodi:linespacing="100%"><tspan
         sodipodi:role="line"
         id="tspan4662"
         x="22.927149"
         y="61.764652"
         style="font-style:normal;font-variant:normal;font-weight:normal;font-stretch:normal;font-size:5.64444447px;line-height:100%;font-family:Arial;-inkscape-font-specification:'Arial, Normal';text-align:center;writing-mode:lr-tb;text-anchor:middle;fill:#008000;stroke-width:0.26458332">ZADEJTE</tspan><tspan
         sodipodi:role="line"
         x="22.927149"
         y="67.409096"
         style="font-style:normal;font-variant:normal;font-weight:normal;font-stretch:normal;font-size:5.64444447px;line-height:100%;font-family:Arial;-inkscape-font-specification:'Arial, Normal';text-align:center;writing-mode:lr-tb;text-anchor:middle;fill:#008000;stroke-width:0.26458332"
         id="tspan4666">POLOHU</tspan></text>
    <text
       xml:space="preserve"
       style="font-style:normal;font-variant:normal;font-weight:normal;font-stretch:normal;font-size:5.64444447px;line-height:100%;font-family:Arial;-inkscape-font-specification:'Arial, Normal';text-align:center;letter-spacing:0px;word-spacing:0px;writing-mode:lr-tb;text-anchor:middle;fill:#000000;fill-opacity:1;stroke:none;stroke-width:0.26458332"
       x="103.1842"
       y="61.764652"
       id="text4664-7"
       sodipodi:linespacing="100%"><tspan
         sodipodi:role="line"
         id="tspan4662-7"
         x="103.1842"
         y="61.764652"
         style="font-style:normal;font-variant:normal;font-weight:normal;font-stretch:normal;font-size:5.64444447px;line-height:100%;font-family:Arial;-inkscape-font-specification:'Arial, Normal';text-align:center;writing-mode:lr-tb;text-anchor:middle;fill:#008000;stroke-width:0.26458332">VYBERTE</tspan><tspan
         sodipodi:role="line"
         x="103.1842"
         y="67.409096"
         style="font-style:normal;font-variant:normal;font-weight:normal;font-stretch:normal;font-size:5.64444447px;line-height:100%;font-family:Arial;-inkscape-font-specification:'Arial, Normal';text-align:center;writing-mode:lr-tb;text-anchor:middle;fill:#008000;stroke-width:0.26458332"
         id="tspan4666-3">FYZIOTERAPEUTA</tspan></text>
    <text
       xml:space="preserve"
       style="font-style:normal;font-variant:normal;font-weight:normal;font-stretch:normal;font-size:5.64444447px;line-height:100%;font-family:Arial;-inkscape-font-specification:'Arial, Normal';text-align:center;letter-spacing:0px;word-spacing:0px;writing-mode:lr-tb;text-anchor:middle;fill:#000000;fill-opacity:1;stroke:none;stroke-width:0.26458332"
       x="184.85611"
       y="61.755554"
       id="text4664-9"
       sodipodi:linespacing="100%"><tspan
         sodipodi:role="line"
         id="tspan4662-5"
         x="184.85611"
         y="61.755554"
         style="font-style:normal;font-variant:normal;font-weight:normal;font-stretch:normal;font-size:5.64444447px;line-height:100%;font-family:Arial;-inkscape-font-specification:'Arial, Normal';text-align:center;writing-mode:lr-tb;text-anchor:middle;fill:#008000;stroke-width:0.26458332">REZERVUJTE SI</tspan><tspan
         sodipodi:role="line"
         x="184.85611"
         y="67.400002"
         style="font-style:normal;font-variant:normal;font-weight:normal;font-stretch:normal;font-size:5.64444447px;line-height:100%;font-family:Arial;-inkscape-font-specification:'Arial, Normal';text-align:center;writing-mode:lr-tb;text-anchor:middle;fill:#008000;stroke-width:0.26458332"
         id="tspan4666-6">TERMÍN</tspan></text>
  </g>
</svg>
